"1","Your mother's maiden name"
"2","Your first beach visited?"
"3","What is your first pet name?"
"4","Who was your childhood hero?"
"5","Who is your favorite artist?"
"6","What is the country of your ultimate dream vacation?"
"7","What is the ideal character your looking for?"
"8","What is your favorite line?"
"9","What was your childhood nickname?"
"10","What was the name of your first stuffed animal?"
"11","What is the name of the company of your first job?"
"12","What was your dream job as a child?"
"13","What is your favorite team?"
"14","What is your favorite movie?"
"15","What is your favorite book?"
"16","What month and day is your anniversary?"
"17","What is your grandmother's first name?"
"18","What is your preferred musical genre? "
"19","What was your high school or college mascot?"
"20","What was your dream job as a child?"
"21","Where were you when you had your first kiss?"
"22","What is your highest lowest grade you got?"
